{
  "version": "1",
  "package": [
    {
      "name": "attr",
      "layer": "meta",
      "version": "2.5.1",
      "products": [
        {
          "product": "attr",
          "cvesInRecord": "No"
        }
      ],
      "issue": []
    }
  ]
}