{
  "version": "1",
  "package": [
    {
      "name": "autoconf-archive",
      "layer": "meta",
      "version": "2022.02.11",
      "products": [
        {
          "product": "autoconf-archive",
          "cvesInRecord": "No"
        }
      ],
      "issue": []
    }
  ]
}