{
  "version": "1",
  "package": [
    {
      "name": "bzip2-native",
      "layer": "meta",
      "version": "1.0.8",
      "products": [
        {
          "product": "bzip2",
          "cvesInRecord": "Yes"
        }
      ],
      "issue": [
        {
          "id": "CVE-2002-0759",
          "summary": "bzip2 before 1.0.2 in FreeBSD 4.5 and earlier, OpenLinux 3.1 and 3.1.1, and possibly other operating systems, does not use the O_EXCL flag to create files during decompression and does not warn the user if an existing file would be overwritten, which could allow attackers to overwrite files via a bzip2 archive.",
          "scorev2": "5.0",
          "scorev3": "0.0",
          "vector": "NETWORK",
          "status": "Patched",
          "link": "https://nvd.nist.gov/vuln/detail/CVE-2002-0759"
        },
        {
          "id": "CVE-2002-0760",
          "summary": "Race condition in bzip2 before 1.0.2 in FreeBSD 4.5 and earlier, OpenLinux 3.1 and 3.1.1, and possibly other operating systems, decompresses files with world-readable permissions before setting the permissions to what is specified in the bzip2 archive, which could allow local users to read the files as they are being decompressed.",
          "scorev2": "1.2",
          "scorev3": "0.0",
          "vector": "LOCAL",
          "status": "Patched",
          "link": "https://nvd.nist.gov/vuln/detail/CVE-2002-0760"
        },
        {
          "id": "CVE-2002-0761",
          "summary": "bzip2 before 1.0.2 in FreeBSD 4.5 and earlier, OpenLinux 3.1 and 3.1.1, and possibly systems, uses the permissions of symbolic links instead of the actual files when creating an archive, which could cause the files to be extracted with less restrictive permissions than intended.",
          "scorev2": "2.1",
          "scorev3": "0.0",
          "vector": "LOCAL",
          "status": "Patched",
          "link": "https://nvd.nist.gov/vuln/detail/CVE-2002-0761"
        },
        {
          "id": "CVE-2005-0953",
          "summary": "Race condition in bzip2 1.0.2 and earlier allows local users to modify permissions of arbitrary files via a hard link attack on a file while it is being decompressed, whose permissions are changed by bzip2 after the decompression is complete.",
          "scorev2": "3.7",
          "scorev3": "0.0",
          "vector": "LOCAL",
          "status": "Patched",
          "link": "https://nvd.nist.gov/vuln/detail/CVE-2005-0953"
        },
        {
          "id": "CVE-2005-1260",
          "summary": "bzip2 allows remote attackers to cause a denial of service (hard drive consumption) via a crafted bzip2 file that causes an infinite loop (a.k.a \"decompression bomb\").",
          "scorev2": "5.0",
          "scorev3": "0.0",
          "vector": "NETWORK",
          "status": "Patched",
          "link": "https://nvd.nist.gov/vuln/detail/CVE-2005-1260"
        },
        {
          "id": "CVE-2008-1372",
          "summary": "bzlib.c in bzip2 before 1.0.5 allows user-assisted remote attackers to cause a denial of service (crash) via a crafted file that triggers a buffer over-read, as demonstrated by the PROTOS GENOME test suite for Archive Formats.",
          "scorev2": "4.3",
          "scorev3": "0.0",
          "vector": "NETWORK",
          "status": "Patched",
          "link": "https://nvd.nist.gov/vuln/detail/CVE-2008-1372"
        },
        {
          "id": "CVE-2010-0405",
          "summary": "Integer overflow in the BZ2_decompress function in decompress.c in bzip2 and libbzip2 before 1.0.6 allows context-dependent attackers to cause a denial of service (application crash) or possibly execute arbitrary code via a crafted compressed file.",
          "scorev2": "5.1",
          "scorev3": "0.0",
          "vector": "NETWORK",
          "status": "Patched",
          "link": "https://nvd.nist.gov/vuln/detail/CVE-2010-0405"
        },
        {
          "id": "CVE-2011-4089",
          "summary": "The bzexe command in bzip2 1.0.5 and earlier generates compressed executables that do not properly handle temporary files during extraction, which allows local users to execute arbitrary code by precreating a temporary directory.",
          "scorev2": "4.6",
          "scorev3": "0.0",
          "vector": "LOCAL",
          "status": "Patched",
          "link": "https://nvd.nist.gov/vuln/detail/CVE-2011-4089"
        },
        {
          "id": "CVE-2016-3189",
          "summary": "Use-after-free vulnerability in bzip2recover in bzip2 1.0.6 allows remote attackers to cause a denial of service (crash) via a crafted bzip2 file, related to block ends set to before the start of the block.",
          "scorev2": "4.3",
          "scorev3": "6.5",
          "vector": "NETWORK",
          "status": "Patched",
          "link": "https://nvd.nist.gov/vuln/detail/CVE-2016-3189"
        },
        {
          "id": "CVE-2019-12900",
          "summary": "BZ2_decompress in decompress.c in bzip2 through 1.0.6 has an out-of-bounds write when there are many selectors.",
          "scorev2": "7.5",
          "scorev3": "9.8",
          "vector": "NETWORK",
          "status": "Patched",
          "link": "https://nvd.nist.gov/vuln/detail/CVE-2019-12900"
        }
      ]
    }
  ]
}