{
  "version": "1",
  "package": [
    {
      "name": "cross-localedef-native",
      "layer": "meta",
      "version": "2.35",
      "products": [
        {
          "product": "cross-localedef",
          "cvesInRecord": "No"
        }
      ],
      "issue": []
    }
  ]
}