{
  "version": "1",
  "package": [
    {
      "name": "glib-2.0-native",
      "layer": "meta",
      "version": "1_2.72.1",
      "products": [
        {
          "product": "glib",
          "cvesInRecord": "Yes"
        }
      ],
      "issue": [
        {
          "id": "CVE-2008-4316",
          "summary": "Multiple integer overflows in glib/gbase64.c in GLib before 2.20 allow context-dependent attackers to execute arbitrary code via a long string that is converted either (1) from or (2) to a base64 representation.",
          "scorev2": "4.6",
          "scorev3": "0.0",
          "vector": "LOCAL",
          "status": "Patched",
          "link": "https://nvd.nist.gov/vuln/detail/CVE-2008-4316"
        },
        {
          "id": "CVE-2009-3289",
          "summary": "The g_file_copy function in glib 2.0 sets the permissions of a target file to the permissions of a symbolic link (777), which allows user-assisted local users to modify files of other users, as demonstrated by using Nautilus to modify the permissions of the user home directory.",
          "scorev2": "4.4",
          "scorev3": "0.0",
          "vector": "LOCAL",
          "status": "Patched",
          "link": "https://nvd.nist.gov/vuln/detail/CVE-2009-3289"
        },
        {
          "id": "CVE-2012-0039",
          "summary": "** DISPUTED ** GLib 2.31.8 and earlier, when the g_str_hash function is used, computes hash values without restricting the ability to trigger hash collisions predictably, which allows context-dependent attackers to cause a denial of service (CPU consumption) via crafted input to an application that maintains a hash table.  NOTE: this issue may be disputed by the vendor; the existence of the g_str_hash function is not a vulnerability in the library, because callers of g_hash_table_new and g_hash_table_new_full can specify an arbitrary hash function that is appropriate for the application.",
          "scorev2": "5.0",
          "scorev3": "0.0",
          "vector": "NETWORK",
          "status": "Patched",
          "link": "https://nvd.nist.gov/vuln/detail/CVE-2012-0039"
        },
        {
          "id": "CVE-2018-16428",
          "summary": "In GNOME GLib 2.56.1, g_markup_parse_context_end_parse() in gmarkup.c has a NULL pointer dereference.",
          "scorev2": "7.5",
          "scorev3": "9.8",
          "vector": "NETWORK",
          "status": "Patched",
          "link": "https://nvd.nist.gov/vuln/detail/CVE-2018-16428"
        },
        {
          "id": "CVE-2018-16429",
          "summary": "GNOME GLib 2.56.1 has an out-of-bounds read vulnerability in g_markup_parse_context_parse() in gmarkup.c, related to utf8_str().",
          "scorev2": "5.0",
          "scorev3": "7.5",
          "vector": "NETWORK",
          "status": "Patched",
          "link": "https://nvd.nist.gov/vuln/detail/CVE-2018-16429"
        },
        {
          "id": "CVE-2019-12450",
          "summary": "file_copy_fallback in gio/gfile.c in GNOME GLib 2.15.0 through 2.61.1 does not properly restrict file permissions while a copy operation is in progress. Instead, default permissions are used.",
          "scorev2": "7.5",
          "scorev3": "9.8",
          "vector": "NETWORK",
          "status": "Patched",
          "link": "https://nvd.nist.gov/vuln/detail/CVE-2019-12450"
        },
        {
          "id": "CVE-2019-13012",
          "summary": "The keyfile settings backend in GNOME GLib (aka glib2.0) before 2.60.0 creates directories using g_file_make_directory_with_parents (kfsb->dir, NULL, NULL) and files using g_file_replace_contents (kfsb->file, contents, length, NULL, FALSE, G_FILE_CREATE_REPLACE_DESTINATION, NULL, NULL, NULL). Consequently, it does not properly restrict directory (and file) permissions. Instead, for directories, 0777 permissions are used; for files, default file permissions are used. This is similar to CVE-2019-12450.",
          "scorev2": "5.0",
          "scorev3": "7.5",
          "vector": "NETWORK",
          "status": "Patched",
          "link": "https://nvd.nist.gov/vuln/detail/CVE-2019-13012"
        },
        {
          "id": "CVE-2019-9633",
          "summary": "gio/gsocketclient.c in GNOME GLib 2.59.2 does not ensure that a parent GTask remains alive during the execution of a connection-attempting enumeration, which allows remote attackers to cause a denial of service (g_socket_client_connected_callback mishandling and application crash) via a crafted web site, as demonstrated by GNOME Web (aka Epiphany).",
          "scorev2": "4.3",
          "scorev3": "6.5",
          "vector": "NETWORK",
          "status": "Patched",
          "link": "https://nvd.nist.gov/vuln/detail/CVE-2019-9633"
        },
        {
          "id": "CVE-2020-35457",
          "summary": "** DISPUTED ** GNOME GLib before 2.65.3 has an integer overflow, that might lead to an out-of-bounds write, in g_option_group_add_entries. NOTE: the vendor's position is \"Realistically this is not a security issue. The standard pattern is for callers to provide a static list of option entries in a fixed number of calls to g_option_group_add_entries().\" The researcher states that this pattern is undocumented.",
          "scorev2": "4.6",
          "scorev3": "7.8",
          "vector": "LOCAL",
          "status": "Patched",
          "link": "https://nvd.nist.gov/vuln/detail/CVE-2020-35457"
        },
        {
          "id": "CVE-2020-6750",
          "summary": "GSocketClient in GNOME GLib through 2.62.4 may occasionally connect directly to a target address instead of connecting via a proxy server when configured to do so, because the proxy_addr field is mishandled. This bug is timing-dependent and may occur only sporadically depending on network delays. The greatest security relevance is in use cases where a proxy is used to help with privacy/anonymity, even though there is no technical barrier to a direct connection. NOTE: versions before 2.60 are unaffected.",
          "scorev2": "4.3",
          "scorev3": "5.9",
          "vector": "NETWORK",
          "status": "Patched",
          "link": "https://nvd.nist.gov/vuln/detail/CVE-2020-6750"
        },
        {
          "id": "CVE-2021-27218",
          "summary": "An issue was discovered in GNOME GLib before 2.66.7 and 2.67.x before 2.67.4. If g_byte_array_new_take() was called with a buffer of 4GB or more on a 64-bit platform, the length would be truncated modulo 2**32, causing unintended length truncation.",
          "scorev2": "5.0",
          "scorev3": "7.5",
          "vector": "NETWORK",
          "status": "Patched",
          "link": "https://nvd.nist.gov/vuln/detail/CVE-2021-27218"
        },
        {
          "id": "CVE-2021-27219",
          "summary": "An issue was discovered in GNOME GLib before 2.66.6 and 2.67.x before 2.67.3. The function g_bytes_new has an integer overflow on 64-bit platforms due to an implicit cast from 64 bits to 32 bits. The overflow could potentially lead to memory corruption.",
          "scorev2": "5.0",
          "scorev3": "7.5",
          "vector": "NETWORK",
          "status": "Patched",
          "link": "https://nvd.nist.gov/vuln/detail/CVE-2021-27219"
        },
        {
          "id": "CVE-2021-28153",
          "summary": "An issue was discovered in GNOME GLib before 2.66.8. When g_file_replace() is used with G_FILE_CREATE_REPLACE_DESTINATION to replace a path that is a dangling symlink, it incorrectly also creates the target of the symlink as an empty file, which could conceivably have security relevance if the symlink is attacker-controlled. (If the path is a symlink to a file that already exists, then the contents of that file correctly remain unchanged.)",
          "scorev2": "5.0",
          "scorev3": "5.3",
          "vector": "NETWORK",
          "status": "Patched",
          "link": "https://nvd.nist.gov/vuln/detail/CVE-2021-28153"
        }
      ]
    }
  ]
}