{
  "version": "1",
  "package": [
    {
      "name": "gmp-native",
      "layer": "meta",
      "version": "6.2.1",
      "products": [
        {
          "product": "gmp",
          "cvesInRecord": "No"
        }
      ],
      "issue": [
        {
          "id": "CVE-2021-43618",
          "summary": "GNU Multiple Precision Arithmetic Library (GMP) through 6.2.1 has an mpz/inp_raw.c integer overflow and resultant buffer overflow via crafted input, leading to a segmentation fault on 32-bit platforms.",
          "scorev2": "5.0",
          "scorev3": "7.5",
          "vector": "NETWORK",
          "status": "Patched",
          "link": "https://nvd.nist.gov/vuln/detail/CVE-2021-43618"
        }
      ]
    }
  ]
}