{
  "version": "1",
  "package": [
    {
      "name": "itstool-native",
      "layer": "meta",
      "version": "2.0.7",
      "products": [
        {
          "product": "itstool",
          "cvesInRecord": "No"
        }
      ],
      "issue": []
    }
  ]
}