{
  "version": "1",
  "package": [
    {
      "name": "kmod",
      "layer": "meta",
      "version": "29",
      "products": [
        {
          "product": "kmod",
          "cvesInRecord": "No"
        }
      ],
      "issue": []
    }
  ]
}