{
  "version": "1",
  "package": [
    {
      "name": "libabigail-native",
      "layer": "meta-binaryaudit",
      "version": "2.0",
      "products": [
        {
          "product": "libabigail",
          "cvesInRecord": "No"
        }
      ],
      "issue": []
    }
  ]
}