{
  "version": "1",
  "package": [
    {
      "name": "libfile-slurp-perl-native",
      "layer": "meta-perl",
      "version": "9999.19",
      "products": [
        {
          "product": "libfile-slurp-perl",
          "cvesInRecord": "No"
        }
      ],
      "issue": []
    }
  ]
}