{
  "version": "1",
  "package": [
    {
      "name": "libpcre-native",
      "layer": "meta",
      "version": "8.45",
      "products": [
        {
          "product": "pcre",
          "cvesInRecord": "Yes"
        }
      ],
      "issue": [
        {
          "id": "CVE-2005-2491",
          "summary": "Integer overflow in pcre_compile.c in Perl Compatible Regular Expressions (PCRE) before 6.2, as used in multiple products such as Python, Ethereal, and PHP, allows attackers to execute arbitrary code via quantifier values in regular expressions, which leads to a heap-based buffer overflow.",
          "scorev2": "7.5",
          "scorev3": "0.0",
          "vector": "NETWORK",
          "status": "Patched",
          "link": "https://nvd.nist.gov/vuln/detail/CVE-2005-2491"
        },
        {
          "id": "CVE-2005-4872",
          "summary": "Perl-Compatible Regular Expression (PCRE) library before 6.2 does not properly count the number of named capturing subpatterns, which allows context-dependent attackers to cause a denial of service (crash) via a regular expression with a large number of named subpatterns, which triggers a buffer overflow.  NOTE: this issue was originally subsumed by CVE-2006-7224, but that CVE has been REJECTED and split.",
          "scorev2": "4.3",
          "scorev3": "0.0",
          "vector": "NETWORK",
          "status": "Patched",
          "link": "https://nvd.nist.gov/vuln/detail/CVE-2005-4872"
        },
        {
          "id": "CVE-2006-7225",
          "summary": "Perl-Compatible Regular Expression (PCRE) library before 6.7 allows context-dependent attackers to cause a denial of service (error or crash) via a regular expression that involves a \"malformed POSIX character class\", as demonstrated via an invalid character after a [[ sequence.",
          "scorev2": "4.3",
          "scorev3": "0.0",
          "vector": "NETWORK",
          "status": "Patched",
          "link": "https://nvd.nist.gov/vuln/detail/CVE-2006-7225"
        },
        {
          "id": "CVE-2006-7227",
          "summary": "Integer overflow in Perl-Compatible Regular Expression (PCRE) library before 6.7 allows context-dependent attackers to execute arbitrary code via a regular expression containing a large number of named subpatterns (name_count) or long subpattern names (max_name_size), which triggers a buffer overflow.  NOTE: this issue was originally subsumed by CVE-2006-7224, but that CVE has been REJECTED and split.",
          "scorev2": "6.8",
          "scorev3": "0.0",
          "vector": "NETWORK",
          "status": "Patched",
          "link": "https://nvd.nist.gov/vuln/detail/CVE-2006-7227"
        },
        {
          "id": "CVE-2006-7228",
          "summary": "Integer overflow in Perl-Compatible Regular Expression (PCRE) library before 6.7 might allow context-dependent attackers to execute arbitrary code via a regular expression that involves large (1) min, (2) max, or (3) duplength values that cause an incorrect length calculation and trigger a buffer overflow, a different vulnerability than CVE-2006-7227.  NOTE: this issue was originally subsumed by CVE-2006-7224, but that CVE has been REJECTED and split.",
          "scorev2": "6.8",
          "scorev3": "0.0",
          "vector": "NETWORK",
          "status": "Patched",
          "link": "https://nvd.nist.gov/vuln/detail/CVE-2006-7228"
        },
        {
          "id": "CVE-2006-7230",
          "summary": "Perl-Compatible Regular Expression (PCRE) library before 7.0 does not properly calculate the amount of memory needed for a compiled regular expression pattern when the (1) -x or (2) -i UTF-8 options change within the pattern, which allows context-dependent attackers to cause a denial of service (PCRE or glibc crash) via crafted regular expressions.",
          "scorev2": "4.3",
          "scorev3": "0.0",
          "vector": "NETWORK",
          "status": "Patched",
          "link": "https://nvd.nist.gov/vuln/detail/CVE-2006-7230"
        },
        {
          "id": "CVE-2007-1659",
          "summary": "Perl-Compatible Regular Expression (PCRE) library before 7.3 allows context-dependent attackers to cause a denial of service (crash) and possibly execute arbitrary code via regex patterns containing unmatched \"\\Q\\E\" sequences with orphan \"\\E\" codes.",
          "scorev2": "6.8",
          "scorev3": "0.0",
          "vector": "NETWORK",
          "status": "Patched",
          "link": "https://nvd.nist.gov/vuln/detail/CVE-2007-1659"
        },
        {
          "id": "CVE-2007-1660",
          "summary": "Perl-Compatible Regular Expression (PCRE) library before 7.0 does not properly calculate sizes for unspecified \"multiple forms of character class\", which triggers a buffer overflow that allows context-dependent attackers to cause a denial of service (crash) and possibly execute arbitrary code.",
          "scorev2": "6.8",
          "scorev3": "0.0",
          "vector": "NETWORK",
          "status": "Patched",
          "link": "https://nvd.nist.gov/vuln/detail/CVE-2007-1660"
        },
        {
          "id": "CVE-2007-1662",
          "summary": "Perl-Compatible Regular Expression (PCRE) library before 7.3 reads past the end of the string when searching for unmatched brackets and parentheses, which allows context-dependent attackers to cause a denial of service (crash), possibly involving forward references.",
          "scorev2": "5.0",
          "scorev3": "0.0",
          "vector": "NETWORK",
          "status": "Patched",
          "link": "https://nvd.nist.gov/vuln/detail/CVE-2007-1662"
        },
        {
          "id": "CVE-2007-4766",
          "summary": "Multiple integer overflows in Perl-Compatible Regular Expression (PCRE) library before 7.3 allow context-dependent attackers to cause a denial of service (crash) or execute arbitrary code via unspecified escape (backslash) sequences.",
          "scorev2": "7.5",
          "scorev3": "0.0",
          "vector": "NETWORK",
          "status": "Patched",
          "link": "https://nvd.nist.gov/vuln/detail/CVE-2007-4766"
        },
        {
          "id": "CVE-2007-4767",
          "summary": "Perl-Compatible Regular Expression (PCRE) library before 7.3 does not properly compute the length of (1) a \\p sequence, (2) a \\P sequence, or (3) a \\P{x} sequence, which allows context-dependent attackers to cause a denial of service (infinite loop or crash) or execute arbitrary code.",
          "scorev2": "5.0",
          "scorev3": "0.0",
          "vector": "NETWORK",
          "status": "Patched",
          "link": "https://nvd.nist.gov/vuln/detail/CVE-2007-4767"
        },
        {
          "id": "CVE-2007-4768",
          "summary": "Heap-based buffer overflow in Perl-Compatible Regular Expression (PCRE) library before 7.3 allows context-dependent attackers to execute arbitrary code via a singleton Unicode sequence in a character class in a regex pattern, which is incorrectly optimized.",
          "scorev2": "6.8",
          "scorev3": "0.0",
          "vector": "NETWORK",
          "status": "Patched",
          "link": "https://nvd.nist.gov/vuln/detail/CVE-2007-4768"
        },
        {
          "id": "CVE-2008-0674",
          "summary": "Buffer overflow in PCRE before 7.6 allows remote attackers to execute arbitrary code via a regular expression containing a character class with a large number of characters with Unicode code points greater than 255.",
          "scorev2": "7.5",
          "scorev3": "0.0",
          "vector": "NETWORK",
          "status": "Patched",
          "link": "https://nvd.nist.gov/vuln/detail/CVE-2008-0674"
        },
        {
          "id": "CVE-2008-2371",
          "summary": "Heap-based buffer overflow in pcre_compile.c in the Perl-Compatible Regular Expression (PCRE) library 7.7 allows context-dependent attackers to cause a denial of service (crash) or possibly execute arbitrary code via a regular expression that begins with an option and contains multiple branches.",
          "scorev2": "7.5",
          "scorev3": "0.0",
          "vector": "NETWORK",
          "status": "Patched",
          "link": "https://nvd.nist.gov/vuln/detail/CVE-2008-2371"
        },
        {
          "id": "CVE-2014-9769",
          "summary": "pcre_jit_compile.c in PCRE 8.35 does not properly use table jumps to optimize nested alternatives, which allows remote attackers to cause a denial of service (stack memory corruption) or possibly have unspecified other impact via a crafted string, as demonstrated by packets encountered by Suricata during use of a regular expression in an Emerging Threats Open ruleset.",
          "scorev2": "7.5",
          "scorev3": "7.3",
          "vector": "NETWORK",
          "status": "Patched",
          "link": "https://nvd.nist.gov/vuln/detail/CVE-2014-9769"
        },
        {
          "id": "CVE-2015-2325",
          "summary": "The compile_branch function in PCRE before 8.37 allows context-dependent attackers to compile incorrect code, cause a denial of service (out-of-bounds heap read and crash), or possibly have other unspecified impact via a regular expression with a group containing a forward reference repeated a large number of times within a repeated outer group that has a zero minimum quantifier.",
          "scorev2": "6.8",
          "scorev3": "7.8",
          "vector": "NETWORK",
          "status": "Patched",
          "link": "https://nvd.nist.gov/vuln/detail/CVE-2015-2325"
        },
        {
          "id": "CVE-2015-2326",
          "summary": "The pcre_compile2 function in PCRE before 8.37 allows context-dependent attackers to compile incorrect code and cause a denial of service (out-of-bounds read) via regular expression with a group containing both a forward referencing subroutine call and a recursive back reference, as demonstrated by \"((?+1)(\\1))/\".",
          "scorev2": "4.3",
          "scorev3": "5.5",
          "vector": "NETWORK",
          "status": "Patched",
          "link": "https://nvd.nist.gov/vuln/detail/CVE-2015-2326"
        },
        {
          "id": "CVE-2015-2328",
          "summary": "PCRE before 8.36 mishandles the /((?(R)a|(?1)))+/ pattern and related patterns with certain recursion, which allows remote attackers to cause a denial of service (segmentation fault) or possibly have unspecified other impact via a crafted regular expression, as demonstrated by a JavaScript RegExp object encountered by Konqueror.",
          "scorev2": "7.5",
          "scorev3": "0.0",
          "vector": "NETWORK",
          "status": "Patched",
          "link": "https://nvd.nist.gov/vuln/detail/CVE-2015-2328"
        },
        {
          "id": "CVE-2015-3210",
          "summary": "Heap-based buffer overflow in PCRE 8.34 through 8.37 and PCRE2 10.10 allows remote attackers to execute arbitrary code via a crafted regular expression, as demonstrated by /^(?P=B)((?P=B)(?J:(?P<B>c)(?P<B>a(?P=B)))>WGXCREDITS)/, a different vulnerability than CVE-2015-8384.",
          "scorev2": "7.5",
          "scorev3": "9.8",
          "vector": "NETWORK",
          "status": "Patched",
          "link": "https://nvd.nist.gov/vuln/detail/CVE-2015-3210"
        },
        {
          "id": "CVE-2015-3217",
          "summary": "PCRE 7.8 and 8.32 through 8.37, and PCRE2 10.10 mishandle group empty matches, which might allow remote attackers to cause a denial of service (stack-based buffer overflow) via a crafted regular expression, as demonstrated by /^(?:(?(1)\\\\.|([^\\\\\\\\W_])?)+)+$/.",
          "scorev2": "5.0",
          "scorev3": "7.5",
          "vector": "NETWORK",
          "status": "Patched",
          "link": "https://nvd.nist.gov/vuln/detail/CVE-2015-3217"
        },
        {
          "id": "CVE-2015-5073",
          "summary": "Heap-based buffer overflow in the find_fixedlength function in pcre_compile.c in PCRE before 8.38 allows remote attackers to cause a denial of service (crash) or obtain sensitive information from heap memory and possibly bypass the ASLR protection mechanism via a crafted regular expression with an excess closing parenthesis.",
          "scorev2": "6.4",
          "scorev3": "9.1",
          "vector": "NETWORK",
          "status": "Patched",
          "link": "https://nvd.nist.gov/vuln/detail/CVE-2015-5073"
        },
        {
          "id": "CVE-2015-8391",
          "summary": "The pcre_compile function in pcre_compile.c in PCRE before 8.38 mishandles certain [: nesting, which allows remote attackers to cause a denial of service (CPU consumption) or possibly have unspecified other impact via a crafted regular expression, as demonstrated by a JavaScript RegExp object encountered by Konqueror.",
          "scorev2": "9.0",
          "scorev3": "9.8",
          "vector": "NETWORK",
          "status": "Patched",
          "link": "https://nvd.nist.gov/vuln/detail/CVE-2015-8391"
        },
        {
          "id": "CVE-2016-1283",
          "summary": "The pcre_compile2 function in pcre_compile.c in PCRE 8.38 mishandles the /((?:F?+(?:^(?(R)a+\\\"){99}-))(?J)(?'R'(?'R'<((?'RR'(?'R'\\){97)?J)?J)(?'R'(?'R'\\){99|(:(?|(?'R')(\\k'R')|((?'R')))H'R'R)(H'R))))))/ pattern and related patterns with named subgroups, which allows remote attackers to cause a denial of service (heap-based buffer overflow) or possibly have unspecified other impact via a crafted regular expression, as demonstrated by a JavaScript RegExp object encountered by Konqueror.",
          "scorev2": "7.5",
          "scorev3": "9.8",
          "vector": "NETWORK",
          "status": "Patched",
          "link": "https://nvd.nist.gov/vuln/detail/CVE-2016-1283"
        },
        {
          "id": "CVE-2016-3191",
          "summary": "The compile_branch function in pcre_compile.c in PCRE 8.x before 8.39 and pcre2_compile.c in PCRE2 before 10.22 mishandles patterns containing an (*ACCEPT) substring in conjunction with nested parentheses, which allows remote attackers to execute arbitrary code or cause a denial of service (stack-based buffer overflow) via a crafted regular expression, as demonstrated by a JavaScript RegExp object encountered by Konqueror, aka ZDI-CAN-3542.",
          "scorev2": "7.5",
          "scorev3": "9.8",
          "vector": "NETWORK",
          "status": "Patched",
          "link": "https://nvd.nist.gov/vuln/detail/CVE-2016-3191"
        },
        {
          "id": "CVE-2017-11164",
          "summary": "In PCRE 8.41, the OP_KETRMAX feature in the match function in pcre_exec.c allows stack exhaustion (uncontrolled recursion) when processing a crafted regular expression.",
          "scorev2": "7.8",
          "scorev3": "7.5",
          "vector": "NETWORK",
          "status": "Patched",
          "link": "https://nvd.nist.gov/vuln/detail/CVE-2017-11164"
        },
        {
          "id": "CVE-2017-16231",
          "summary": "** DISPUTED ** In PCRE 8.41, after compiling, a pcretest load test PoC produces a crash overflow in the function match() in pcre_exec.c because of a self-recursive call. NOTE: third parties dispute the relevance of this report, noting that there are options that can be used to limit the amount of stack that is used.",
          "scorev2": "2.1",
          "scorev3": "5.5",
          "vector": "LOCAL",
          "status": "Patched",
          "link": "https://nvd.nist.gov/vuln/detail/CVE-2017-16231"
        },
        {
          "id": "CVE-2017-6004",
          "summary": "The compile_bracket_matchingpath function in pcre_jit_compile.c in PCRE through 8.x before revision 1680 (e.g., the PHP 7.1.1 bundled version) allows remote attackers to cause a denial of service (out-of-bounds read and application crash) via a crafted regular expression.",
          "scorev2": "5.0",
          "scorev3": "7.5",
          "vector": "NETWORK",
          "status": "Patched",
          "link": "https://nvd.nist.gov/vuln/detail/CVE-2017-6004"
        },
        {
          "id": "CVE-2017-7186",
          "summary": "libpcre1 in PCRE 8.40 and libpcre2 in PCRE2 10.23 allow remote attackers to cause a denial of service (segmentation violation for read access, and application crash) by triggering an invalid Unicode property lookup.",
          "scorev2": "5.0",
          "scorev3": "7.5",
          "vector": "NETWORK",
          "status": "Patched",
          "link": "https://nvd.nist.gov/vuln/detail/CVE-2017-7186"
        },
        {
          "id": "CVE-2017-7244",
          "summary": "The _pcre32_xclass function in pcre_xclass.c in libpcre1 in PCRE 8.40 allows remote attackers to cause a denial of service (invalid memory read) via a crafted file.",
          "scorev2": "4.3",
          "scorev3": "5.5",
          "vector": "NETWORK",
          "status": "Patched",
          "link": "https://nvd.nist.gov/vuln/detail/CVE-2017-7244"
        },
        {
          "id": "CVE-2017-7245",
          "summary": "Stack-based buffer overflow in the pcre32_copy_substring function in pcre_get.c in libpcre1 in PCRE 8.40 allows remote attackers to cause a denial of service (WRITE of size 4) or possibly have unspecified other impact via a crafted file.",
          "scorev2": "6.8",
          "scorev3": "7.8",
          "vector": "NETWORK",
          "status": "Patched",
          "link": "https://nvd.nist.gov/vuln/detail/CVE-2017-7245"
        },
        {
          "id": "CVE-2017-7246",
          "summary": "Stack-based buffer overflow in the pcre32_copy_substring function in pcre_get.c in libpcre1 in PCRE 8.40 allows remote attackers to cause a denial of service (WRITE of size 268) or possibly have unspecified other impact via a crafted file.",
          "scorev2": "6.8",
          "scorev3": "7.8",
          "vector": "NETWORK",
          "status": "Patched",
          "link": "https://nvd.nist.gov/vuln/detail/CVE-2017-7246"
        },
        {
          "id": "CVE-2019-20838",
          "summary": "libpcre in PCRE before 8.43 allows a subject buffer over-read in JIT when UTF is disabled, and \\X or \\R has more than one fixed quantifier, a related issue to CVE-2019-20454.",
          "scorev2": "4.3",
          "scorev3": "7.5",
          "vector": "NETWORK",
          "status": "Patched",
          "link": "https://nvd.nist.gov/vuln/detail/CVE-2019-20838"
        },
        {
          "id": "CVE-2020-14155",
          "summary": "libpcre in PCRE before 8.44 allows an integer overflow via a large number after a (?C substring.",
          "scorev2": "5.0",
          "scorev3": "5.3",
          "vector": "NETWORK",
          "status": "Patched",
          "link": "https://nvd.nist.gov/vuln/detail/CVE-2020-14155"
        }
      ]
    }
  ]
}