{
  "version": "1",
  "package": [
    {
      "name": "libssp-nonshared",
      "layer": "meta",
      "version": "1.0",
      "products": [
        {
          "product": "libssp-nonshared",
          "cvesInRecord": "No"
        }
      ],
      "issue": []
    }
  ]
}