{
  "version": "1",
  "package": [
    {
      "name": "libtool-cross",
      "layer": "meta",
      "version": "2.4.7",
      "products": [
        {
          "product": "libtool",
          "cvesInRecord": "Yes"
        }
      ],
      "issue": [
        {
          "id": "CVE-2004-0256",
          "summary": "GNU libtool before 1.5.2, during compile time, allows local users to overwrite arbitrary files via a symlink attack on libtool directories in /tmp.",
          "scorev2": "2.1",
          "scorev3": "0.0",
          "vector": "LOCAL",
          "status": "Patched",
          "link": "https://nvd.nist.gov/vuln/detail/CVE-2004-0256"
        },
        {
          "id": "CVE-2009-3736",
          "summary": "ltdl.c in libltdl in GNU Libtool 1.5.x, and 2.2.6 before 2.2.6b, as used in Ham Radio Control Libraries, Q, and possibly other products, attempts to open a .la file in the current working directory, which allows local users to gain privileges via a Trojan horse file.",
          "scorev2": "6.9",
          "scorev3": "0.0",
          "vector": "LOCAL",
          "status": "Patched",
          "link": "https://nvd.nist.gov/vuln/detail/CVE-2009-3736"
        }
      ]
    }
  ]
}