{
  "version": "1",
  "package": [
    {
      "name": "m4",
      "layer": "meta",
      "version": "1.4.19",
      "products": [
        {
          "product": "m4",
          "cvesInRecord": "Yes"
        }
      ],
      "issue": [
        {
          "id": "CVE-2008-1687",
          "summary": "The (1) maketemp and (2) mkstemp builtin functions in GNU m4 before 1.4.11 do not quote their output when a file is created, which might allow context-dependent attackers to trigger a macro expansion, leading to unspecified use of an incorrect filename.",
          "scorev2": "7.5",
          "scorev3": "0.0",
          "vector": "NETWORK",
          "status": "Patched",
          "link": "https://nvd.nist.gov/vuln/detail/CVE-2008-1687"
        },
        {
          "id": "CVE-2008-1688",
          "summary": "Unspecified vulnerability in GNU m4 before 1.4.11 might allow context-dependent attackers to execute arbitrary code, related to improper handling of filenames specified with the -F option.  NOTE: it is not clear when this issue crosses privilege boundaries.",
          "scorev2": "7.5",
          "scorev3": "0.0",
          "vector": "NETWORK",
          "status": "Patched",
          "link": "https://nvd.nist.gov/vuln/detail/CVE-2008-1688"
        }
      ]
    }
  ]
}