{
  "version": "1",
  "package": [
    {
      "name": "make-native",
      "layer": "meta",
      "version": "4.3",
      "products": [
        {
          "product": "make",
          "cvesInRecord": "Yes"
        }
      ],
      "issue": [
        {
          "id": "CVE-2000-0151",
          "summary": "GNU make follows symlinks when it reads a Makefile from stdin, which allows other local users to execute commands.",
          "scorev2": "6.2",
          "scorev3": "0.0",
          "vector": "LOCAL",
          "status": "Patched",
          "link": "https://nvd.nist.gov/vuln/detail/CVE-2000-0151"
        }
      ]
    }
  ]
}