{
  "version": "1",
  "package": [
    {
      "name": "musl-obstack",
      "layer": "meta",
      "version": "1.1",
      "products": [
        {
          "product": "musl-obstack",
          "cvesInRecord": "No"
        }
      ],
      "issue": []
    }
  ]
}