{
  "version": "1",
  "package": [
    {
      "name": "networkmanager",
      "layer": "meta-networking",
      "version": "1.36.2",
      "products": [
        {
          "product": "networkmanager",
          "cvesInRecord": "Yes"
        }
      ],
      "issue": [
        {
          "id": "CVE-2005-2410",
          "summary": "Format string vulnerability in the nm_info_handler function in Network Manager may allow remote attackers to execute arbitrary code via format string specifiers in a Wireless Access Point identifier, which is not properly handled in a syslog call.",
          "scorev2": "7.5",
          "scorev3": "0.0",
          "vector": "NETWORK",
          "status": "Patched",
          "link": "https://nvd.nist.gov/vuln/detail/CVE-2005-2410"
        },
        {
          "id": "CVE-2006-7246",
          "summary": "NetworkManager 0.9.x does not pin a certificate's subject to an ESSID when 802.11X authentication is used.",
          "scorev2": "3.2",
          "scorev3": "6.8",
          "vector": "ADJACENT_NETWORK",
          "status": "Patched",
          "link": "https://nvd.nist.gov/vuln/detail/CVE-2006-7246"
        },
        {
          "id": "CVE-2009-4144",
          "summary": "NetworkManager (NM) 0.7.2 does not ensure that the configured Certification Authority (CA) certificate file for a (1) WPA Enterprise or (2) 802.1x network remains present upon a connection attempt, which might allow remote attackers to obtain sensitive information or cause a denial of service (connectivity disruption) by spoofing the identity of a wireless network.",
          "scorev2": "6.8",
          "scorev3": "0.0",
          "vector": "NETWORK",
          "status": "Patched",
          "link": "https://nvd.nist.gov/vuln/detail/CVE-2009-4144"
        },
        {
          "id": "CVE-2009-4145",
          "summary": "nm-connection-editor in NetworkManager (NM) 0.7.x exports connection objects over D-Bus upon actions in the connection editor GUI, which allows local users to obtain sensitive information by reading D-Bus signals, as demonstrated by using dbus-monitor to discover the password for the WiFi network.",
          "scorev2": "2.1",
          "scorev3": "0.0",
          "vector": "LOCAL",
          "status": "Patched",
          "link": "https://nvd.nist.gov/vuln/detail/CVE-2009-4145"
        },
        {
          "id": "CVE-2011-1943",
          "summary": "The destroy_one_secret function in nm-setting-vpn.c in libnm-util in the NetworkManager package 0.8.999-3.git20110526 in Fedora 15 creates a log entry containing a certificate password, which allows local users to obtain sensitive information by reading a log file.",
          "scorev2": "2.1",
          "scorev3": "0.0",
          "vector": "LOCAL",
          "status": "Patched",
          "link": "https://nvd.nist.gov/vuln/detail/CVE-2011-1943"
        },
        {
          "id": "CVE-2011-2176",
          "summary": "GNOME NetworkManager before 0.8.6 does not properly enforce the auth_admin element in PolicyKit, which allows local users to bypass intended wireless network sharing restrictions via unspecified vectors.",
          "scorev2": "2.1",
          "scorev3": "0.0",
          "vector": "LOCAL",
          "status": "Patched",
          "link": "https://nvd.nist.gov/vuln/detail/CVE-2011-2176"
        },
        {
          "id": "CVE-2012-1096",
          "summary": "NetworkManager 0.9 and earlier allows local users to use other users' certificates or private keys when making a connection via the file path when adding a new connection.",
          "scorev2": "4.9",
          "scorev3": "5.5",
          "vector": "LOCAL",
          "status": "Patched",
          "link": "https://nvd.nist.gov/vuln/detail/CVE-2012-1096"
        },
        {
          "id": "CVE-2012-2736",
          "summary": "In NetworkManager 0.9.2.0, when a new wireless network was created with WPA/WPA2 security in AdHoc mode, it created an open/insecure network.",
          "scorev2": "3.3",
          "scorev3": "4.4",
          "vector": "LOCAL",
          "status": "Patched",
          "link": "https://nvd.nist.gov/vuln/detail/CVE-2012-2736"
        },
        {
          "id": "CVE-2015-0272",
          "summary": "GNOME NetworkManager allows remote attackers to cause a denial of service (IPv6 traffic disruption) via a crafted MTU value in an IPv6 Router Advertisement (RA) message, a different vulnerability than CVE-2015-8215.",
          "scorev2": "5.0",
          "scorev3": "0.0",
          "vector": "NETWORK",
          "status": "Patched",
          "link": "https://nvd.nist.gov/vuln/detail/CVE-2015-0272"
        },
        {
          "id": "CVE-2015-2924",
          "summary": "The receive_ra function in rdisc/nm-lndp-rdisc.c in the Neighbor Discovery (ND) protocol implementation in the IPv6 stack in NetworkManager 1.x allows remote attackers to reconfigure a hop-limit setting via a small hop_limit value in a Router Advertisement (RA) message, a similar issue to CVE-2015-2922.",
          "scorev2": "3.3",
          "scorev3": "0.0",
          "vector": "ADJACENT_NETWORK",
          "status": "Patched",
          "link": "https://nvd.nist.gov/vuln/detail/CVE-2015-2924"
        },
        {
          "id": "CVE-2016-0764",
          "summary": "Race condition in Network Manager before 1.0.12 as packaged in Red Hat Enterprise Linux Desktop 7, Red Hat Enterprise Linux HPC Node 7, Red Hat Enterprise Linux Server 7, and Red Hat Enterprise Linux Workstation 7 allows local users to obtain sensitive connection information by reading temporary files during ifcfg and keyfile changes.",
          "scorev2": "2.1",
          "scorev3": "6.2",
          "vector": "LOCAL",
          "status": "Patched",
          "link": "https://nvd.nist.gov/vuln/detail/CVE-2016-0764"
        },
        {
          "id": "CVE-2018-1000135",
          "summary": "GNOME NetworkManager version 1.10.2 and earlier contains a Information Exposure (CWE-200) vulnerability in DNS resolver that can result in Private DNS queries leaked to local network's DNS servers, while on VPN. This vulnerability appears to have been fixed in Some Ubuntu 16.04 packages were fixed, but later updates removed the fix. cf. https://bugs.launchpad.net/ubuntu/+bug/1754671 an upstream fix does not appear to be available at this time.",
          "scorev2": "5.0",
          "scorev3": "7.5",
          "vector": "NETWORK",
          "status": "Patched",
          "link": "https://nvd.nist.gov/vuln/detail/CVE-2018-1000135"
        },
        {
          "id": "CVE-2020-10754",
          "summary": "It was found that nmcli, a command line interface to NetworkManager did not honour 802-1x.ca-path and 802-1x.phase2-ca-path settings, when creating a new profile. When a user connects to a network using this profile, the authentication does not happen and the connection is made insecurely.",
          "scorev2": "4.0",
          "scorev3": "4.3",
          "vector": "NETWORK",
          "status": "Patched",
          "link": "https://nvd.nist.gov/vuln/detail/CVE-2020-10754"
        },
        {
          "id": "CVE-2021-20297",
          "summary": "A flaw was found in NetworkManager in versions before 1.30.0. Setting match.path and activating a profile crashes NetworkManager. The highest threat from this vulnerability is to system availability.",
          "scorev2": "2.1",
          "scorev3": "5.5",
          "vector": "LOCAL",
          "status": "Patched",
          "link": "https://nvd.nist.gov/vuln/detail/CVE-2021-20297"
        }
      ]
    }
  ]
}