{
  "version": "1",
  "package": [
    {
      "name": "oniro-grub-bootconf",
      "layer": "meta-oniro-core",
      "version": "1.0",
      "products": [
        {
          "product": "oniro-grub-bootconf",
          "cvesInRecord": "No"
        }
      ],
      "issue": []
    }
  ]
}