{
  "version": "1",
  "package": [
    {
      "name": "pixman",
      "layer": "meta",
      "version": "1_0.40.0",
      "products": [
        {
          "product": "pixman",
          "cvesInRecord": "Yes"
        }
      ],
      "issue": [
        {
          "id": "CVE-2013-6424",
          "summary": "Integer underflow in the xTrapezoidValid macro in render/picture.h in X.Org allows context-dependent attackers to cause a denial of service (crash) via a negative bottom value.",
          "scorev2": "5.0",
          "scorev3": "0.0",
          "vector": "NETWORK",
          "status": "Patched",
          "link": "https://nvd.nist.gov/vuln/detail/CVE-2013-6424"
        },
        {
          "id": "CVE-2013-6425",
          "summary": "Integer underflow in the pixman_trapezoid_valid macro in pixman.h in Pixman before 0.32.0, as used in X.Org server and cairo, allows context-dependent attackers to cause a denial of service (crash) via a negative bottom value.",
          "scorev2": "5.0",
          "scorev3": "0.0",
          "vector": "NETWORK",
          "status": "Patched",
          "link": "https://nvd.nist.gov/vuln/detail/CVE-2013-6425"
        },
        {
          "id": "CVE-2014-9766",
          "summary": "Integer overflow in the create_bits function in pixman-bits-image.c in Pixman before 0.32.6 allows remote attackers to cause a denial of service (application crash) or possibly execute arbitrary code via large height and stride values.",
          "scorev2": "7.5",
          "scorev3": "9.8",
          "vector": "NETWORK",
          "status": "Patched",
          "link": "https://nvd.nist.gov/vuln/detail/CVE-2014-9766"
        },
        {
          "id": "CVE-2015-5297",
          "summary": "An integer overflow issue has been reported in the general_composite_rect() function in pixman prior to version 0.32.8. An attacker could exploit this issue to cause an application using pixman to crash or, potentially, execute arbitrary code.",
          "scorev2": "7.5",
          "scorev3": "9.8",
          "vector": "NETWORK",
          "status": "Patched",
          "link": "https://nvd.nist.gov/vuln/detail/CVE-2015-5297"
        }
      ]
    }
  ]
}