{
  "version": "1",
  "package": [
    {
      "name": "python3-wheel-native",
      "layer": "meta",
      "version": "0.37.1",
      "products": [
        {
          "product": "wheel",
          "cvesInRecord": "No"
        }
      ],
      "issue": []
    }
  ]
}