{
  "version": "1",
  "package": [
    {
      "name": "python3-markupsafe-native",
      "layer": "meta",
      "version": "2.1.1",
      "products": [
        {
          "product": "MarkupSafe",
          "cvesInRecord": "No"
        }
      ],
      "issue": []
    }
  ]
}