{
  "version": "1",
  "package": [
    {
      "name": "quilt-native",
      "layer": "meta",
      "version": "0.67",
      "products": [
        {
          "product": "quilt",
          "cvesInRecord": "No"
        }
      ],
      "issue": []
    }
  ]
}