{
  "version": "1",
  "package": [
    {
      "name": "readline-native",
      "layer": "meta",
      "version": "8.1.2",
      "products": [
        {
          "product": "readline",
          "cvesInRecord": "Yes"
        }
      ],
      "issue": [
        {
          "id": "CVE-2014-2524",
          "summary": "The _rl_tropen function in util.c in GNU readline before 6.3 patch 3 allows local users to create or overwrite arbitrary files via a symlink attack on a /var/tmp/rltrace.[PID] file.",
          "scorev2": "3.3",
          "scorev3": "0.0",
          "vector": "LOCAL",
          "status": "Patched",
          "link": "https://nvd.nist.gov/vuln/detail/CVE-2014-2524"
        }
      ]
    }
  ]
}