{
  "version": "1",
  "package": [
    {
      "name": "shadow",
      "layer": "meta",
      "version": "4.11.1",
      "products": [
        {
          "product": "shadow",
          "cvesInRecord": "Yes"
        }
      ],
      "issue": [
        {
          "id": "CVE-2004-1001",
          "summary": "Unknown vulnerability in the passwd_check function in Shadow 4.0.4.1, and possibly other versions before 4.0.5, allows local users to conduct unauthorized activities when an error from a pam_chauthtok function call is not properly handled.",
          "scorev2": "4.6",
          "scorev3": "0.0",
          "vector": "LOCAL",
          "status": "Patched",
          "link": "https://nvd.nist.gov/vuln/detail/CVE-2004-1001"
        },
        {
          "id": "CVE-2005-4890",
          "summary": "There is a possible tty hijacking in shadow 4.x before 4.1.5 and sudo 1.x before 1.7.4 via \"su - user -c program\". The user session can be escaped to the parent session by using the TIOCSTI ioctl to push characters into the input buffer to be read by the next process.",
          "scorev2": "7.2",
          "scorev3": "7.8",
          "vector": "LOCAL",
          "status": "Patched",
          "link": "https://nvd.nist.gov/vuln/detail/CVE-2005-4890"
        },
        {
          "id": "CVE-2006-1174",
          "summary": "useradd in shadow-utils before 4.0.3, and possibly other versions before 4.0.8, does not provide a required argument to the open function when creating a new user mailbox, which causes the mailbox to be created with unpredictable permissions and possibly allows attackers to read or modify the mailbox.",
          "scorev2": "3.7",
          "scorev3": "0.0",
          "vector": "LOCAL",
          "status": "Patched",
          "link": "https://nvd.nist.gov/vuln/detail/CVE-2006-1174"
        },
        {
          "id": "CVE-2006-1844",
          "summary": "The Debian installer for the (1) shadow 4.0.14 and (2) base-config 2.53.10 packages includes sensitive information in world-readable log files, including preseeded passwords and pppoeconf passwords, which might allow local users to gain privileges.",
          "scorev2": "2.1",
          "scorev3": "0.0",
          "vector": "LOCAL",
          "status": "Patched",
          "link": "https://nvd.nist.gov/vuln/detail/CVE-2006-1844"
        },
        {
          "id": "CVE-2008-5394",
          "summary": "/bin/login in shadow 4.0.18.1 in Debian GNU/Linux, and probably other Linux distributions, allows local users in the utmp group to overwrite arbitrary files via a symlink attack on a temporary file referenced in a line (aka ut_line) field in a utmp entry.",
          "scorev2": "7.2",
          "scorev3": "0.0",
          "vector": "LOCAL",
          "status": "Patched",
          "link": "https://nvd.nist.gov/vuln/detail/CVE-2008-5394"
        },
        {
          "id": "CVE-2011-0721",
          "summary": "Multiple CRLF injection vulnerabilities in (1) chfn and (2) chsh in shadow 1:4.1.4 allow local users to add new users or groups to /etc/passwd via the GECOS field.",
          "scorev2": "6.4",
          "scorev3": "0.0",
          "vector": "NETWORK",
          "status": "Patched",
          "link": "https://nvd.nist.gov/vuln/detail/CVE-2011-0721"
        },
        {
          "id": "CVE-2013-4235",
          "summary": "shadow: TOCTOU (time-of-check time-of-use) race condition when copying and removing directory trees",
          "scorev2": "3.3",
          "scorev3": "4.7",
          "vector": "LOCAL",
          "status": "Ignored",
          "link": "https://nvd.nist.gov/vuln/detail/CVE-2013-4235"
        },
        {
          "id": "CVE-2016-6252",
          "summary": "Integer overflow in shadow 4.2.1 allows local users to gain privileges via crafted input to newuidmap.",
          "scorev2": "4.6",
          "scorev3": "7.8",
          "vector": "LOCAL",
          "status": "Patched",
          "link": "https://nvd.nist.gov/vuln/detail/CVE-2016-6252"
        },
        {
          "id": "CVE-2017-12424",
          "summary": "In shadow before 4.5, the newusers tool could be made to manipulate internal data structures in ways unintended by the authors. Malformed input may lead to crashes (with a buffer overflow or other memory corruption) or other unspecified behaviors. This crosses a privilege boundary in, for example, certain web-hosting environments in which a Control Panel allows an unprivileged user account to create subaccounts.",
          "scorev2": "7.5",
          "scorev3": "9.8",
          "vector": "NETWORK",
          "status": "Patched",
          "link": "https://nvd.nist.gov/vuln/detail/CVE-2017-12424"
        },
        {
          "id": "CVE-2017-20002",
          "summary": "The Debian shadow package before 1:4.5-1 for Shadow incorrectly lists pts/0 and pts/1 as physical terminals in /etc/securetty. This allows local users to login as password-less users even if they are connected by non-physical means such as SSH (hence bypassing PAM's nullok_secure configuration). This notably affects environments such as virtual machines automatically generated with a default blank root password, allowing all local users to escalate privileges.",
          "scorev2": "4.6",
          "scorev3": "7.8",
          "vector": "LOCAL",
          "status": "Patched",
          "link": "https://nvd.nist.gov/vuln/detail/CVE-2017-20002"
        },
        {
          "id": "CVE-2018-16588",
          "summary": "Privilege escalation can occur in the SUSE useradd.c code in useradd, as distributed in the SUSE shadow package through 4.2.1-27.9.1 for SUSE Linux Enterprise 12 (SLE-12) and through 4.5-5.39 for SUSE Linux Enterprise 15 (SLE-15). Non-existing intermediate directories are created with mode 0777 during user creation. Given that they are world-writable, local attackers might use this for privilege escalation and other unspecified attacks.  NOTE: this would affect non-SUSE users who took useradd.c code from a 2014-04-02 upstream pull request; however, no non-SUSE distribution is known to be affected.",
          "scorev2": "4.6",
          "scorev3": "7.8",
          "vector": "LOCAL",
          "status": "Patched",
          "link": "https://nvd.nist.gov/vuln/detail/CVE-2018-16588"
        },
        {
          "id": "CVE-2018-7169",
          "summary": "An issue was discovered in shadow 4.5. newgidmap (in shadow-utils) is setuid and allows an unprivileged user to be placed in a user namespace where setgroups(2) is permitted. This allows an attacker to remove themselves from a supplementary group, which may allow access to certain filesystem paths if the administrator has used \"group blacklisting\" (e.g., chmod g-rwx) to restrict access to paths. This flaw effectively reverts a security feature in the kernel (in particular, the /proc/self/setgroups knob) to prevent this sort of privilege escalation.",
          "scorev2": "5.0",
          "scorev3": "5.3",
          "vector": "NETWORK",
          "status": "Patched",
          "link": "https://nvd.nist.gov/vuln/detail/CVE-2018-7169"
        },
        {
          "id": "CVE-2019-16110",
          "summary": "The network protocol of Blade Shadow though 2.13.3 allows remote attackers to take control of a Shadow instance and execute arbitrary code by only knowing the victim's IP address, because packet data can be injected into the unencrypted UDP packet stream.",
          "scorev2": "6.8",
          "scorev3": "8.1",
          "vector": "NETWORK",
          "status": "Patched",
          "link": "https://nvd.nist.gov/vuln/detail/CVE-2019-16110"
        },
        {
          "id": "CVE-2019-19882",
          "summary": "shadow 4.8, in certain circumstances affecting at least Gentoo, Arch Linux, and Void Linux, allows local users to obtain root access because setuid programs are misconfigured. Specifically, this affects shadow 4.8 when compiled using --with-libpam but without explicitly passing --disable-account-tools-setuid, and without a PAM configuration suitable for use with setuid account management tools. This combination leads to account management tools (groupadd, groupdel, groupmod, useradd, userdel, usermod) that can easily be used by unprivileged local users to escalate privileges to root in multiple ways. This issue became much more relevant in approximately December 2019 when an unrelated bug was fixed (i.e., the chmod calls to suidusbins were fixed in the upstream Makefile which is now included in the release version 4.8).",
          "scorev2": "6.9",
          "scorev3": "7.8",
          "vector": "LOCAL",
          "status": "Patched",
          "link": "https://nvd.nist.gov/vuln/detail/CVE-2019-19882"
        }
      ]
    }
  ]
}