{
  "version": "1",
  "package": [
    {
      "name": "slang",
      "layer": "meta",
      "version": "2.3.2",
      "products": [
        {
          "product": "slang",
          "cvesInRecord": "No"
        }
      ],
      "issue": []
    }
  ]
}