{
  "version": "1",
  "package": [
    {
      "name": "swig-native",
      "layer": "meta",
      "version": "4.0.2",
      "products": [
        {
          "product": "swig",
          "cvesInRecord": "No"
        }
      ],
      "issue": []
    }
  ]
}