{
  "version": "1",
  "package": [
    {
      "name": "unzip",
      "layer": "meta",
      "version": "1_6.0",
      "products": [
        {
          "product": "unzip",
          "cvesInRecord": "Yes"
        }
      ],
      "issue": [
        {
          "id": "CVE-2001-1268",
          "summary": "Directory traversal vulnerability in Info-ZIP UnZip 5.42 and earlier allows attackers to overwrite arbitrary files during archive extraction via a .. (dot dot) in an extracted filename.",
          "scorev2": "2.1",
          "scorev3": "0.0",
          "vector": "LOCAL",
          "status": "Patched",
          "link": "https://nvd.nist.gov/vuln/detail/CVE-2001-1268"
        },
        {
          "id": "CVE-2001-1269",
          "summary": "Info-ZIP UnZip 5.42 and earlier allows attackers to overwrite arbitrary files during archive extraction via filenames in the archive that begin with the '/' (slash) character.",
          "scorev2": "2.1",
          "scorev3": "0.0",
          "vector": "LOCAL",
          "status": "Patched",
          "link": "https://nvd.nist.gov/vuln/detail/CVE-2001-1269"
        },
        {
          "id": "CVE-2003-0282",
          "summary": "Directory traversal vulnerability in UnZip 5.50 allows attackers to overwrite arbitrary files via invalid characters between two . (dot) characters, which are filtered and result in a \"..\" sequence.",
          "scorev2": "2.6",
          "scorev3": "0.0",
          "vector": "NETWORK",
          "status": "Patched",
          "link": "https://nvd.nist.gov/vuln/detail/CVE-2003-0282"
        },
        {
          "id": "CVE-2005-0602",
          "summary": "Unzip 5.51 and earlier does not properly warn the user when extracting setuid or setgid files, which may allow local users to gain privileges.",
          "scorev2": "6.2",
          "scorev3": "0.0",
          "vector": "LOCAL",
          "status": "Patched",
          "link": "https://nvd.nist.gov/vuln/detail/CVE-2005-0602"
        },
        {
          "id": "CVE-2005-2475",
          "summary": "Race condition in Unzip 5.52 allows local users to modify permissions of arbitrary files via a hard link attack on a file while it is being decompressed, whose permissions are changed by Unzip after the decompression is complete.",
          "scorev2": "1.2",
          "scorev3": "0.0",
          "vector": "LOCAL",
          "status": "Patched",
          "link": "https://nvd.nist.gov/vuln/detail/CVE-2005-2475"
        },
        {
          "id": "CVE-2005-4667",
          "summary": "Buffer overflow in UnZip 5.50 and earlier allows user-assisted attackers to execute arbitrary code via a long filename command line argument.  NOTE: since the overflow occurs in a non-setuid program, there are not many scenarios under which it poses a vulnerability, unless unzip is passed long arguments when it is invoked from other programs.",
          "scorev2": "3.7",
          "scorev3": "0.0",
          "vector": "LOCAL",
          "status": "Patched",
          "link": "https://nvd.nist.gov/vuln/detail/CVE-2005-4667"
        },
        {
          "id": "CVE-2008-0888",
          "summary": "The NEEDBITS macro in the inflate_dynamic function in inflate.c for unzip can be invoked using invalid buffers, which allows remote attackers to cause a denial of service (crash) and possibly execute arbitrary code via unknown vectors that trigger a free of uninitialized or previously-freed data.",
          "scorev2": "9.3",
          "scorev3": "0.0",
          "vector": "NETWORK",
          "status": "Ignored",
          "link": "https://nvd.nist.gov/vuln/detail/CVE-2008-0888"
        },
        {
          "id": "CVE-2014-8139",
          "summary": "Heap-based buffer overflow in the CRC32 verification in Info-ZIP UnZip 6.0 and earlier allows remote attackers to execute arbitrary code via a crafted zip file in the -t command argument to the unzip command.",
          "scorev2": "6.8",
          "scorev3": "7.8",
          "vector": "NETWORK",
          "status": "Patched",
          "link": "https://nvd.nist.gov/vuln/detail/CVE-2014-8139"
        },
        {
          "id": "CVE-2014-8140",
          "summary": "Heap-based buffer overflow in the test_compr_eb function in Info-ZIP UnZip 6.0 and earlier allows remote attackers to execute arbitrary code via a crafted zip file in the -t command argument to the unzip command.",
          "scorev2": "6.8",
          "scorev3": "7.8",
          "vector": "NETWORK",
          "status": "Patched",
          "link": "https://nvd.nist.gov/vuln/detail/CVE-2014-8140"
        },
        {
          "id": "CVE-2014-8141",
          "summary": "Heap-based buffer overflow in the getZip64Data function in Info-ZIP UnZip 6.0 and earlier allows remote attackers to execute arbitrary code via a crafted zip file in the -t command argument to the unzip command.",
          "scorev2": "6.8",
          "scorev3": "7.8",
          "vector": "NETWORK",
          "status": "Patched",
          "link": "https://nvd.nist.gov/vuln/detail/CVE-2014-8141"
        },
        {
          "id": "CVE-2014-9636",
          "summary": "unzip 6.0 allows remote attackers to cause a denial of service (out-of-bounds read or write and crash) via an extra field with an uncompressed size smaller than the compressed field size in a zip archive that advertises STORED method compression.",
          "scorev2": "5.0",
          "scorev3": "0.0",
          "vector": "NETWORK",
          "status": "Patched",
          "link": "https://nvd.nist.gov/vuln/detail/CVE-2014-9636"
        },
        {
          "id": "CVE-2014-9913",
          "summary": "Buffer overflow in the list_files function in list.c in Info-Zip UnZip 6.0 allows remote attackers to cause a denial of service (crash) via vectors related to the compression method.",
          "scorev2": "2.1",
          "scorev3": "4.0",
          "vector": "LOCAL",
          "status": "Patched",
          "link": "https://nvd.nist.gov/vuln/detail/CVE-2014-9913"
        },
        {
          "id": "CVE-2015-1315",
          "summary": "Buffer overflow in the charset_to_intern function in unix/unix.c in Info-Zip UnZip 6.10b allows remote attackers to execute arbitrary code via a crafted string, as demonstrated by converting a string from CP866 to UTF-8.",
          "scorev2": "7.5",
          "scorev3": "0.0",
          "vector": "NETWORK",
          "status": "Patched",
          "link": "https://nvd.nist.gov/vuln/detail/CVE-2015-1315"
        },
        {
          "id": "CVE-2015-7696",
          "summary": "Info-ZIP UnZip 6.0 allows remote attackers to cause a denial of service (heap-based buffer over-read and application crash) or possibly execute arbitrary code via a crafted password-protected ZIP archive, possibly related to an Extra-Field size value.",
          "scorev2": "6.8",
          "scorev3": "0.0",
          "vector": "NETWORK",
          "status": "Patched",
          "link": "https://nvd.nist.gov/vuln/detail/CVE-2015-7696"
        },
        {
          "id": "CVE-2015-7697",
          "summary": "Info-ZIP UnZip 6.0 allows remote attackers to cause a denial of service (infinite loop) via empty bzip2 data in a ZIP archive.",
          "scorev2": "4.3",
          "scorev3": "0.0",
          "vector": "NETWORK",
          "status": "Patched",
          "link": "https://nvd.nist.gov/vuln/detail/CVE-2015-7697"
        },
        {
          "id": "CVE-2016-9844",
          "summary": "Buffer overflow in the zi_short function in zipinfo.c in Info-Zip UnZip 6.0 allows remote attackers to cause a denial of service (crash) via a large compression method value in the central directory file header.",
          "scorev2": "2.1",
          "scorev3": "4.0",
          "vector": "LOCAL",
          "status": "Patched",
          "link": "https://nvd.nist.gov/vuln/detail/CVE-2016-9844"
        },
        {
          "id": "CVE-2018-1000031",
          "summary": "A heap-based buffer overflow exists in Info-Zip UnZip version 6.10c22 that allows an attacker to perform a denial of service or to possibly achieve code execution.",
          "scorev2": "6.8",
          "scorev3": "7.8",
          "vector": "NETWORK",
          "status": "Patched",
          "link": "https://nvd.nist.gov/vuln/detail/CVE-2018-1000031"
        },
        {
          "id": "CVE-2018-1000032",
          "summary": "A heap-based buffer overflow exists in Info-Zip UnZip version 6.10c22 that allows an attacker to perform a denial of service or to possibly achieve code execution.",
          "scorev2": "6.8",
          "scorev3": "7.8",
          "vector": "NETWORK",
          "status": "Patched",
          "link": "https://nvd.nist.gov/vuln/detail/CVE-2018-1000032"
        },
        {
          "id": "CVE-2018-1000033",
          "summary": "An out-of-bounds read exists in Info-Zip UnZip version 6.10c22 that allows an attacker to perform a denial of service and read sensitive memory.",
          "scorev2": "6.4",
          "scorev3": "9.1",
          "vector": "NETWORK",
          "status": "Patched",
          "link": "https://nvd.nist.gov/vuln/detail/CVE-2018-1000033"
        },
        {
          "id": "CVE-2018-1000034",
          "summary": "An out-of-bounds read exists in Info-Zip UnZip version 6.10c22 that allows an attacker to perform a denial of service and read sensitive memory.",
          "scorev2": "6.4",
          "scorev3": "9.1",
          "vector": "NETWORK",
          "status": "Patched",
          "link": "https://nvd.nist.gov/vuln/detail/CVE-2018-1000034"
        },
        {
          "id": "CVE-2018-1000035",
          "summary": "A heap-based buffer overflow exists in Info-Zip UnZip version <= 6.00 in the processing of password-protected archives that allows an attacker to perform a denial of service or to possibly achieve code execution.",
          "scorev2": "6.8",
          "scorev3": "7.8",
          "vector": "NETWORK",
          "status": "Patched",
          "link": "https://nvd.nist.gov/vuln/detail/CVE-2018-1000035"
        },
        {
          "id": "CVE-2018-18384",
          "summary": "Info-ZIP UnZip 6.0 has a buffer overflow in list.c, when a ZIP archive has a crafted relationship between the compressed-size value and the uncompressed-size value, because a buffer size is 10 and is supposed to be 12.",
          "scorev2": "4.3",
          "scorev3": "5.5",
          "vector": "NETWORK",
          "status": "Patched",
          "link": "https://nvd.nist.gov/vuln/detail/CVE-2018-18384"
        },
        {
          "id": "CVE-2019-13232",
          "summary": "Info-ZIP UnZip 6.0 mishandles the overlapping of files inside a ZIP container, leading to denial of service (resource consumption), aka a \"better zip bomb\" issue.",
          "scorev2": "2.1",
          "scorev3": "3.3",
          "vector": "LOCAL",
          "status": "Patched",
          "link": "https://nvd.nist.gov/vuln/detail/CVE-2019-13232"
        },
        {
          "id": "CVE-2022-0529",
          "summary": "A flaw was found in Unzip. The vulnerability occurs during the conversion of a wide string to a local string that leads to a heap of out-of-bound write. This flaw allows an attacker to input a specially crafted zip file, leading to a crash or code execution.",
          "scorev2": "4.3",
          "scorev3": "5.5",
          "vector": "NETWORK",
          "status": "Unpatched",
          "link": "https://nvd.nist.gov/vuln/detail/CVE-2022-0529"
        },
        {
          "id": "CVE-2022-0530",
          "summary": "A flaw was found in Unzip. The vulnerability occurs during the conversion of a wide string to a local string that leads to a heap of out-of-bound write. This flaw allows an attacker to input a specially crafted zip file, leading to a crash or code execution.",
          "scorev2": "4.3",
          "scorev3": "5.5",
          "vector": "NETWORK",
          "status": "Unpatched",
          "link": "https://nvd.nist.gov/vuln/detail/CVE-2022-0530"
        }
      ]
    }
  ]
}