{
  "version": "1",
  "package": [
    {
      "name": "update-rc.d",
      "layer": "meta",
      "version": "0.8",
      "products": [
        {
          "product": "update-rc.d",
          "cvesInRecord": "No"
        }
      ],
      "issue": []
    }
  ]
}