{
  "version": "1",
  "package": [
    {
      "name": "util-linux-native",
      "layer": "meta",
      "version": "2.37.4",
      "products": [
        {
          "product": "util-linux",
          "cvesInRecord": "Yes"
        }
      ],
      "issue": [
        {
          "id": "CVE-2001-1147",
          "summary": "The PAM implementation in /bin/login of the util-linux package before 2.11 causes a password entry to be rewritten across multiple PAM calls, which could provide the credentials of one user to a different user, when used in certain PAM modules such as pam_limits.",
          "scorev2": "7.2",
          "scorev3": "0.0",
          "vector": "LOCAL",
          "status": "Patched",
          "link": "https://nvd.nist.gov/vuln/detail/CVE-2001-1147"
        },
        {
          "id": "CVE-2001-1175",
          "summary": "vipw in the util-linux package before 2.10 causes /etc/shadow to be world-readable in some cases, which would make it easier for local users to perform brute force password guessing.",
          "scorev2": "7.2",
          "scorev3": "0.0",
          "vector": "LOCAL",
          "status": "Patched",
          "link": "https://nvd.nist.gov/vuln/detail/CVE-2001-1175"
        },
        {
          "id": "CVE-2001-1494",
          "summary": "script command in the util-linux package before 2.11n allows local users to overwrite arbitrary files by setting a hardlink from the typescript log file to any file on the system, then having root execute the script command.",
          "scorev2": "2.1",
          "scorev3": "0.0",
          "vector": "LOCAL",
          "status": "Patched",
          "link": "https://nvd.nist.gov/vuln/detail/CVE-2001-1494"
        },
        {
          "id": "CVE-2003-0094",
          "summary": "A patch for mcookie in the util-linux package for Mandrake Linux 8.2 and 9.0 uses /dev/urandom instead of /dev/random, which causes mcookie to use an entropy source that is more predictable than expected, which may make it easier for certain types of attacks to succeed.",
          "scorev2": "5.0",
          "scorev3": "0.0",
          "vector": "NETWORK",
          "status": "Patched",
          "link": "https://nvd.nist.gov/vuln/detail/CVE-2003-0094"
        },
        {
          "id": "CVE-2004-0080",
          "summary": "The login program in util-linux 2.11 and earlier uses a pointer after it has been freed and reallocated, which could cause login to leak sensitive data.",
          "scorev2": "5.0",
          "scorev3": "0.0",
          "vector": "NETWORK",
          "status": "Patched",
          "link": "https://nvd.nist.gov/vuln/detail/CVE-2004-0080"
        },
        {
          "id": "CVE-2005-2876",
          "summary": "umount in util-linux 2.8 to 2.12q, 2.13-pre1, and 2.13-pre2, and other packages such as loop-aes-utils, allows local users with unmount permissions to gain privileges via the -r (remount) option, which causes the file system to be remounted with just the read-only flag, which effectively clears the nosuid, nodev, and other flags.",
          "scorev2": "7.2",
          "scorev3": "0.0",
          "vector": "LOCAL",
          "status": "Patched",
          "link": "https://nvd.nist.gov/vuln/detail/CVE-2005-2876"
        },
        {
          "id": "CVE-2006-7108",
          "summary": "login in util-linux-2.12a skips pam_acct_mgmt and chauth_tok when authentication is skipped, such as when a Kerberos krlogin session has been established, which might allow users to bypass intended access policies that would be enforced by pam_acct_mgmt and chauth_tok.",
          "scorev2": "4.1",
          "scorev3": "0.0",
          "vector": "LOCAL",
          "status": "Patched",
          "link": "https://nvd.nist.gov/vuln/detail/CVE-2006-7108"
        },
        {
          "id": "CVE-2007-5191",
          "summary": "mount and umount in util-linux and loop-aes-utils call the setuid and setgid functions in the wrong order and do not check the return values, which might allow attackers to gain privileges via helpers such as mount.nfs.",
          "scorev2": "7.2",
          "scorev3": "0.0",
          "vector": "LOCAL",
          "status": "Patched",
          "link": "https://nvd.nist.gov/vuln/detail/CVE-2007-5191"
        },
        {
          "id": "CVE-2008-1926",
          "summary": "Argument injection vulnerability in login (login-utils/login.c) in util-linux-ng 2.14 and earlier makes it easier for remote attackers to hide activities by modifying portions of log events, as demonstrated by appending an \"addr=\" statement to the login name, aka \"audit log injection.\"",
          "scorev2": "7.5",
          "scorev3": "0.0",
          "vector": "NETWORK",
          "status": "Patched",
          "link": "https://nvd.nist.gov/vuln/detail/CVE-2008-1926"
        },
        {
          "id": "CVE-2011-1675",
          "summary": "mount in util-linux 2.19 and earlier attempts to append to the /etc/mtab.tmp file without first checking whether resource limits would interfere, which allows local users to trigger corruption of the /etc/mtab file via a process with a small RLIMIT_FSIZE value, a related issue to CVE-2011-1089.",
          "scorev2": "3.3",
          "scorev3": "0.0",
          "vector": "LOCAL",
          "status": "Patched",
          "link": "https://nvd.nist.gov/vuln/detail/CVE-2011-1675"
        },
        {
          "id": "CVE-2011-1676",
          "summary": "mount in util-linux 2.19 and earlier does not remove the /etc/mtab.tmp file after a failed attempt to add a mount entry, which allows local users to trigger corruption of the /etc/mtab file via multiple invocations.",
          "scorev2": "3.3",
          "scorev3": "0.0",
          "vector": "LOCAL",
          "status": "Patched",
          "link": "https://nvd.nist.gov/vuln/detail/CVE-2011-1676"
        },
        {
          "id": "CVE-2011-1677",
          "summary": "mount in util-linux 2.19 and earlier does not remove the /etc/mtab~ lock file after a failed attempt to add a mount entry, which has unspecified impact and local attack vectors.",
          "scorev2": "4.6",
          "scorev3": "0.0",
          "vector": "LOCAL",
          "status": "Patched",
          "link": "https://nvd.nist.gov/vuln/detail/CVE-2011-1677"
        },
        {
          "id": "CVE-2013-0157",
          "summary": "(a) mount and (b) umount in util-linux 2.14.1, 2.17.2, and probably other versions allow local users to determine the existence of restricted directories by (1) using the --guess-fstype command-line option or (2) attempting to mount a non-existent device, which generates different error messages depending on whether the directory exists.",
          "scorev2": "2.1",
          "scorev3": "0.0",
          "vector": "LOCAL",
          "status": "Patched",
          "link": "https://nvd.nist.gov/vuln/detail/CVE-2013-0157"
        },
        {
          "id": "CVE-2014-9114",
          "summary": "Blkid in util-linux before 2.26rc-1 allows local users to execute arbitrary code.",
          "scorev2": "7.2",
          "scorev3": "7.8",
          "vector": "LOCAL",
          "status": "Patched",
          "link": "https://nvd.nist.gov/vuln/detail/CVE-2014-9114"
        },
        {
          "id": "CVE-2015-5218",
          "summary": "Buffer overflow in text-utils/colcrt.c in colcrt in util-linux before 2.27 allows local users to cause a denial of service (crash) via a crafted file, related to the page global variable.",
          "scorev2": "2.1",
          "scorev3": "0.0",
          "vector": "LOCAL",
          "status": "Patched",
          "link": "https://nvd.nist.gov/vuln/detail/CVE-2015-5218"
        },
        {
          "id": "CVE-2015-5224",
          "summary": "The mkostemp function in login-utils in util-linux when used incorrectly allows remote attackers to cause file name collision and possibly other attacks.",
          "scorev2": "7.5",
          "scorev3": "9.8",
          "vector": "NETWORK",
          "status": "Patched",
          "link": "https://nvd.nist.gov/vuln/detail/CVE-2015-5224"
        },
        {
          "id": "CVE-2016-2779",
          "summary": "runuser in util-linux allows local users to escape to the parent session via a crafted TIOCSTI ioctl call, which pushes characters to the terminal's input buffer.",
          "scorev2": "7.2",
          "scorev3": "7.8",
          "vector": "LOCAL",
          "status": "Patched",
          "link": "https://nvd.nist.gov/vuln/detail/CVE-2016-2779"
        },
        {
          "id": "CVE-2016-5011",
          "summary": "The parse_dos_extended function in partitions/dos.c in the libblkid library in util-linux allows physically proximate attackers to cause a denial of service (memory consumption) via a crafted MSDOS partition table with an extended partition boot record at zero offset.",
          "scorev2": "4.9",
          "scorev3": "4.6",
          "vector": "LOCAL",
          "status": "Patched",
          "link": "https://nvd.nist.gov/vuln/detail/CVE-2016-5011"
        },
        {
          "id": "CVE-2017-2616",
          "summary": "A race condition was found in util-linux before 2.32.1 in the way su handled the management of child processes. A local authenticated attacker could use this flaw to kill other processes with root privileges under specific conditions.",
          "scorev2": "4.7",
          "scorev3": "4.7",
          "vector": "LOCAL",
          "status": "Patched",
          "link": "https://nvd.nist.gov/vuln/detail/CVE-2017-2616"
        },
        {
          "id": "CVE-2018-7738",
          "summary": "In util-linux before 2.32-rc1, bash-completion/umount allows local users to gain privileges by embedding shell commands in a mountpoint name, which is mishandled during a umount command (within Bash) by a different user, as demonstrated by logging in as root and entering umount followed by a tab character for autocompletion.",
          "scorev2": "7.2",
          "scorev3": "7.8",
          "vector": "LOCAL",
          "status": "Patched",
          "link": "https://nvd.nist.gov/vuln/detail/CVE-2018-7738"
        },
        {
          "id": "CVE-2021-37600",
          "summary": "** DISPUTED ** An integer overflow in util-linux through 2.37.1 can potentially cause a buffer overflow if an attacker were able to use system resources in a way that leads to a large number in the /proc/sysvipc/sem file. NOTE: this is unexploitable in GNU C Library environments, and possibly in all realistic environments.",
          "scorev2": "1.2",
          "scorev3": "5.5",
          "vector": "LOCAL",
          "status": "Patched",
          "link": "https://nvd.nist.gov/vuln/detail/CVE-2021-37600"
        },
        {
          "id": "CVE-2022-0563",
          "summary": "A flaw was found in the util-linux chfn and chsh utilities when compiled with Readline support. The Readline library uses an \"INPUTRC\" environment variable to get a path to the library config file. When the library cannot parse the specified file, it prints an error message containing data from the file. This flaw allows an unprivileged user to read root-owned files, potentially leading to privilege escalation. This flaw affects util-linux versions prior to 2.37.4.",
          "scorev2": "1.9",
          "scorev3": "5.5",
          "vector": "LOCAL",
          "status": "Patched",
          "link": "https://nvd.nist.gov/vuln/detail/CVE-2022-0563"
        }
      ]
    }
  ]
}